FCO
…
## # A tibble: 9 × 5
##   quant mod     index  value type 
##   <dbl> <chr>   <chr>  <dbl> <chr>
## 1  0.05 correct CFI   0.960  GoF  
## 2  0.95 miss    CFI   0.981  GoF  
## 3  0.9  miss    CFI   0.968  GoF  
## 4  0.95 correct RMSEA 0.0429 BoF  
## 5  0.05 miss    RMSEA 0.0317 BoF  
## 6  0.1  miss    RMSEA 0.0389 BoF  
## 7  0.95 correct SRMR  0.0426 BoF  
## 8  0.05 miss    SRMR  0.0443 BoF  
## 9  0.1  miss    SRMR  0.0448 BoF  
## 
## $cutoffs
## # A tibble: 30 × 5
##    alpha  beta dec.rule index  cutoff
##    <dbl> <dbl> <chr>    <chr>   <dbl>
##  1  0.05  0.05 FCO1     CFI    0.960 
##  2  0.05  0.05 FCO1     SRMR   0.0426
##  3  0.05  0.05 FCO1     RMSEA  0.0429
##  4  0.05  0.05 FCO2     CFI    0.960 
##  5  0.05  0.05 FCO2     SRMR   0.0443
##  6  0.05  0.05 FCO2     RMSEA  0.0429
##  7  0.05  0.05 DFI      CFI   NA     
##  8  0.05  0.05 DFI      SRMR   0.0443
##  9  0.05  0.05 DFI      RMSEA NA     
## 10  0.05  0.05 Fix      CFI    0.95  
## # ℹ 20 more rows
## 
## $evaluation
## # A tibble: 30 × 14
##    alpha  beta dec.rule index cutoff    TN    FP    TP    FN TypeI TypeII
##    <dbl> <dbl> <chr>    <chr>  <dbl> <dbl> <dbl> <dbl> <dbl> <dbl>  <dbl>
##  1  0.05  0.05 FCO1     SRMR  0.0426    10     0    10     0     0    0  
##  2  0.05  0.05 CP       SRMR  0.0426    10     0    10     0     0    0  
##  3  0.05  0.1  FCO1     SRMR  0.0426    10     0    10     0     0    0  
##  4  0.05  0.1  CP       SRMR  0.0426    10     0    10     0     0    0  
##  5  0.05  0.05 FCO1     CFI   0.960     10     0     9     1     0    0.1
##  6  0.05  0.05 FCO1     RMSEA 0.0429    10     0     9     1     0    0.1
##  7  0.05  0.05 FCO2     CFI   0.960     10     0     9     1     0    0.1
##  8  0.05  0.05 FCO2     SRMR  0.0443    10     0     9     1     0    0.1
##  9  0.05  0.05 FCO2     RMSEA 0.0429    10     0     9     1     0    0.1
## 10  0.05  0.05 DFI      SRMR  0.0443    10     0     9     1     0    0.1
## # ℹ 20 more rows
## # ℹ 3 more variables: SumTypes <dbl>, Power <dbl>, Specificity <dbl>
## 
## $notation
## [1] "Notation for power: positive = Models are different, negative = Models are equal, TN = correct & GoF > co or BoF < co, TP = miss & GoF < co or BoF > co, FP = correct & GoF < co or BoF > co, FN = miss & GoF > co or BoF < co"
## 
## $overlap
…
